<?xml version="1.0" encoding="UTF-8" standalone="no"?>
<svg
   xmlns:dc="http://purl.org/dc/elements/1.1/"
   xmlns:cc="http://creativecommons.org/ns#"
   xmlns:rdf="http://www.w3.org/1999/02/22-rdf-syntax-ns#"
   xmlns:svg="http://www.w3.org/2000/svg"
   xmlns="http://www.w3.org/2000/svg"
   xmlns:sodipodi="http://sodipodi.sourceforge.net/DTD/sodipodi-0.dtd"
   xmlns:inkscape="http://www.inkscape.org/namespaces/inkscape"
   viewBox="0 0 583.90936 269.00003"
   height="269.00003"
   width="583.90936"
   version="1.1"
   id="svg2"
   inkscape:version="0.91 r13725"
   sodipodi:docname="logo.svg">
  <sodipodi:namedview
     pagecolor="#ffffff"
     bordercolor="#666666"
     borderopacity="1"
     objecttolerance="10"
     gridtolerance="10"
     guidetolerance="10"
     inkscape:pageopacity="0"
     inkscape:pageshadow="2"
     inkscape:window-width="1536"
     inkscape:window-height="801"
     id="namedview6"
     showgrid="false"
     inkscape:zoom="1.4142136"
     inkscape:cx="198.71631"
     inkscape:cy="145.04094"
     inkscape:window-x="-8"
     inkscape:window-y="-8"
     inkscape:window-maximized="1"
     inkscape:current-layer="svg2" />
  <metadata
     id="metadata8">
    <rdf:RDF>
      <cc:Work
         rdf:about="">
        <dc:format>image/svg+xml</dc:format>
        <dc:type
           rdf:resource="http://purl.org/dc/dcmitype/StillImage" />
        <dc:title />
      </cc:Work>
    </rdf:RDF>
  </metadata>
  <defs
     id="defs6" />
  <text
     xml:space="preserve"
     style="font-style:normal;font-weight:normal;font-size:36.93335724px;line-height:125%;font-family:sans-serif;letter-spacing:0px;word-spacing:0px;opacity:1;fill:#000000;fill-opacity:1;stroke:none;stroke-width:1px;stroke-linecap:butt;stroke-linejoin:miter;stroke-opacity:1"
     x="101.46526"
     y="57.797112"
     id="text3346"
     sodipodi:linespacing="125%"
     transform="scale(0.98816097,1.0119809)"><tspan
       sodipodi:role="line"
       id="tspan3348"
       x="101.46526"
       y="57.797112"
       style="stroke:none;stroke-opacity:1" /></text>
  <text
     xml:space="preserve"
     style="font-style:normal;font-weight:normal;font-size:36.93335724px;line-height:125%;font-family:sans-serif;letter-spacing:0px;word-spacing:0px;opacity:1;fill:#000000;fill-opacity:1;stroke:none;stroke-width:1px;stroke-linecap:butt;stroke-linejoin:miter;stroke-opacity:1"
     x="200.33241"
     y="42.873466"
     id="text3350"
     sodipodi:linespacing="125%"
     transform="scale(0.98816097,1.0119809)"><tspan
       sodipodi:role="line"
       id="tspan3352"
       x="200.33241"
       y="42.873466"
       style="stroke:none;stroke-opacity:1" /></text>
  <text
     xml:space="preserve"
     style="font-style:normal;font-weight:normal;font-size:36.93335724px;line-height:125%;font-family:sans-serif;letter-spacing:0px;word-spacing:0px;opacity:1;fill:#000000;fill-opacity:1;stroke:none;stroke-width:1px;stroke-linecap:butt;stroke-linejoin:miter;stroke-opacity:1"
     x="315.05527"
     y="54.066216"
     id="text3354"
     sodipodi:linespacing="125%"
     transform="scale(0.98816097,1.0119809)"><tspan
       sodipodi:role="line"
       id="tspan3356"
       x="315.05527"
       y="54.066216"
       style="stroke:none;stroke-opacity:1" /></text>
  <path
     style="opacity:1;fill:#ffffff;fill-opacity:1;stroke:none;stroke-opacity:1"
     d=""
     id="path3388"
     inkscape:connector-curvature="0" />
  <text
     xml:space="preserve"
     style="font-style:normal;font-weight:normal;font-size:36.93335724px;line-height:125%;font-family:sans-serif;letter-spacing:0px;word-spacing:0px;opacity:1;fill:#000000;fill-opacity:1;stroke:none;stroke-width:1px;stroke-linecap:butt;stroke-linejoin:miter;stroke-opacity:1"
     x="104.13769"
     y="293.29654"
     id="text3346-6"
     sodipodi:linespacing="125%"
     transform="scale(0.98816097,1.0119809)"><tspan
       sodipodi:role="line"
       id="tspan3348-4"
       x="104.13769"
       y="293.29654"
       style="stroke:none;stroke-opacity:1" /></text>
  <text
     xml:space="preserve"
     style="font-style:normal;font-weight:normal;font-size:36.93335724px;line-height:125%;font-family:sans-serif;letter-spacing:0px;word-spacing:0px;opacity:1;fill:#000000;fill-opacity:1;stroke:none;stroke-width:1px;stroke-linecap:butt;stroke-linejoin:miter;stroke-opacity:1"
     x="203.00516"
     y="278.37299"
     id="text3350-2"
     sodipodi:linespacing="125%"
     transform="scale(0.98816097,1.0119809)"><tspan
       sodipodi:role="line"
       id="tspan3352-3"
       x="203.00516"
       y="278.37299"
       style="stroke:none;stroke-opacity:1" /></text>
  <text
     xml:space="preserve"
     style="font-style:normal;font-weight:normal;font-size:36.93335724px;line-height:125%;font-family:sans-serif;letter-spacing:0px;word-spacing:0px;opacity:1;fill:#000000;fill-opacity:1;stroke:none;stroke-width:1px;stroke-linecap:butt;stroke-linejoin:miter;stroke-opacity:1"
     x="317.72705"
     y="289.56567"
     id="text3354-2"
     sodipodi:linespacing="125%"
     transform="scale(0.98816097,1.0119809)"><tspan
       sodipodi:role="line"
       id="tspan3356-4"
       x="317.72705"
       y="289.56567"
       style="stroke:none;stroke-opacity:1" /></text>
  <path
     style="opacity:1;fill:#ffffff;fill-opacity:1;stroke:none;stroke-opacity:1"
     d="M 105.46664,152.93798 105.44954,115.03559 73.149153,63.201832 C 55.383538,34.693259 40.848276,11.163863 40.848276,10.914285 c 0,-0.249586 10.609115,-0.334662 23.5756,-0.189055 l 23.575591,0.264745 19.281033,31.978389 c 17.87393,29.644516 19.38366,31.845651 20.68625,30.160238 0.77282,-0.999965 9.62515,-15.490627 19.6719,-32.201498 l 18.26674,-30.383407 23.68602,-0.02467 c 22.28353,-0.02309 23.63233,0.07812 22.77777,1.709504 -0.49963,0.953754 -15.0576,24.446152 -32.35109,52.20533 l -31.44274,50.471249 0,37.96758 0,37.96751 -21.54539,0 -21.54546,0 -0.0171,-37.9023 z"
     id="path3374-0"
     inkscape:connector-curvature="0"
     inkscape:transform-center-x="160.90081"
     inkscape:transform-center-y="-10.226411" />
  <path
     style="opacity:1;fill:#ffffff;fill-opacity:1;stroke:none;stroke-opacity:1"
     d="m 236.47869,190.25691 c -27.80855,-5.3168 -48.98853,-26.0024 -54.57145,-53.29763 -1.27279,-6.22291 -1.49768,-10.94009 -1.11017,-23.28646 0.60097,-19.14817 3.1294,-30.286581 10.51657,-46.32829 14.03926,-30.487255 37.19079,-50.554319 68.79296,-59.627656 8.21389,-2.358273 10.50501,-2.575566 27.23515,-2.582974 15.75755,-0.0069 19.39926,0.292991 26.51191,2.183835 8.01217,2.129985 25.77894,8.679831 27.04123,9.968907 0.34457,0.351843 -0.92008,8.749 -2.8103,18.660341 l -3.43665,18.020606 -5.60751,-3.90507 C 313.39371,39.166138 293.09219,34.862146 275.6322,38.739833 c -22.58334,5.015514 -41.95294,26.778402 -47.62481,53.509287 -6.3903,30.11684 1.10104,53.71631 19.87173,62.6008 15.72103,7.44107 37.11468,4.6493 62.74407,-8.18775 9.77088,-4.89395 10.59489,-5.14735 10.13833,-3.11761 -0.27336,1.21512 -1.85109,9.56683 -3.50611,18.55935 -1.65502,8.99253 -3.47727,16.87891 -4.04941,17.52536 -1.73001,1.95475 -21.83786,7.91049 -34.17827,10.12324 -13.58668,2.43623 -31.34407,2.64673 -42.54904,0.5044 z"
     id="path3376-7"
     inkscape:connector-curvature="0"
     inkscape:transform-center-x="28.811577"
     inkscape:transform-center-y="-12.471795" />
  <path
     style="opacity:1;fill:#ffffff;fill-opacity:1;stroke:none;stroke-opacity:1"
     d="m 324.45762,188.62965 c 0.22594,-0.69165 7.61681,-40.4976 16.42403,-88.45774 8.80725,-47.960045 16.24562,-88.203407 16.52982,-89.429667 l 0.51662,-2.229548 24.1761,0 24.1761,0 19.3558,61.684189 c 10.64558,33.926256 19.543,62.305416 19.77196,63.064686 0.22894,0.75925 0.66681,1.11536 0.9732,0.79134 0.30625,-0.32402 5.70115,-28.5917 11.98867,-62.81695 L 469.80163,9.00816 490.109,8.741104 c 17.50765,-0.230237 20.30739,-0.0628 20.30739,1.214153 0,1.157417 -27.49762,151.642033 -31.92101,174.691843 l -0.99828,5.20226 -24.52343,-0.04 -24.52349,-0.0399 -19.64277,-62.83117 C 398.00392,92.381 388.97628,64.306217 388.74609,64.549739 c -0.2302,0.24352 -5.53318,28.424031 -11.78439,62.623371 l -11.36588,62.18063 -20.77454,0.26662 c -16.46262,0.21129 -20.68921,0.005 -20.36366,-0.99089 z"
     id="path3378-2"
     inkscape:connector-curvature="0"
     inkscape:transform-center-x="-125.82859"
     inkscape:transform-center-y="-11.723724" />
  <path
     style="opacity:1;fill:#ffffff;fill-opacity:1;stroke:none;stroke-opacity:1"
     d="m 10.36127,263.20589 c 1.985527,-10.97512 1.898317,-11.7367 -2.5584666,-22.36785 l -4.2681203,-10.18108 3.9217977,0.0404 c 3.9105862,0.0403 3.9298762,0.0603 6.7320972,6.97641 l 2.810239,6.93601 4.945539,-6.97644 c 4.800611,-6.77213 5.071332,-6.97639 9.247123,-6.97639 l 4.301708,0 -4.51884,6.08638 c -2.48534,3.34751 -5.865672,7.81994 -7.511872,9.93875 -3.242577,4.17353 -3.465319,4.78434 -5.060378,13.87754 l -1.067746,6.08637 -3.7977,0 c -3.7876377,0 -3.7960232,-0.0102 -3.175381,-3.44013 z"
     id="path3380-8"
     inkscape:connector-curvature="0"
     inkscape:transform-center-x="270.08591"
     inkscape:transform-center-y="119.25998" />
  <path
     style="opacity:1;fill:#ffffff;fill-opacity:1;stroke:none;stroke-opacity:1"
     d="m 40.952796,265.85047 c -5.113011,-2.94598 -7.101774,-6.85916 -7.033947,-13.83979 0.126809,-13.02973 8.363883,-22.41222 19.676103,-22.41222 9.065814,0 14.464038,5.74052 14.433104,15.34828 -0.05193,16.08059 -15.17786,27.75878 -27.07526,20.90373 z m 13.654131,-6.04809 c 4.757391,-3.76521 6.997222,-17.50569 3.554462,-21.80433 -2.266032,-2.82932 -7.851718,-2.70629 -11.17358,0.24615 -5.17368,4.59864 -6.842869,15.12082 -3.223367,20.3203 2.248106,3.22948 7.559957,3.83594 10.842485,1.23788 z"
     id="path3382-0"
     inkscape:connector-curvature="0"
     inkscape:transform-center-x="238.62717"
     inkscape:transform-center-y="119.33401" />
  <path
     style="opacity:1;fill:#ffffff;fill-opacity:1;stroke:none;stroke-opacity:1"
     d="m 79.761624,266.761 c -2.372383,-1.16957 -4.756851,-4.23198 -5.527933,-7.09978 -0.501042,-1.86324 2.151594,-21.00025 3.76358,-27.15187 0.355644,-1.35718 1.470283,-1.85239 4.169315,-1.85239 2.026184,0 3.683894,0.18576 3.683894,0.41275 0,0.22699 -0.843023,5.04267 -1.873404,10.7015 -3.007464,16.51582 -2.475355,19.5823 3.397942,19.5823 4.686218,0 6.372408,-3.42401 8.854224,-17.9788 l 2.168454,-12.71775 3.920894,0 3.92099,0 -2.52396,13.77007 c -2.67123,14.57436 -4.338973,18.46205 -9.050091,21.09786 -3.222318,1.80272 -12.23788,2.55047 -14.903905,1.23611 z"
     id="path3384-8"
     inkscape:connector-curvature="0"
     inkscape:transform-center-x="199.39421"
     inkscape:transform-center-y="119.65021" />
  <path
     style="opacity:1;fill:#ffffff;fill-opacity:1;stroke:none;stroke-opacity:1"
     d="m 109.314,265.91298 c 0.0238,-0.47009 1.41279,-8.47593 3.08488,-17.79075 l 3.04018,-16.93599 8.9262,-0.3007 c 7.89436,-0.2659 9.21602,-0.043 11.43489,1.92922 4.56343,4.05609 2.80765,13.49488 -2.97213,15.97797 -2.15746,0.9269 -2.27573,1.1963 -0.90533,2.06289 1.54362,0.97615 5.44948,11.18418 5.44948,14.24233 0,1.09745 -1.07837,1.54806 -3.70461,1.54806 -3.46749,0 -3.74258,-0.22907 -4.29894,-3.5799 -1.02423,-6.16971 -3.76359,-10.18062 -6.95295,-10.18062 -2.97059,0 -2.95301,-0.035 -4.52228,8.99726 -0.70608,4.06345 -0.89462,4.2471 -4.67975,4.55949 -2.16938,0.17901 -3.92416,-0.0592 -3.89964,-0.52926 z m 20.02882,-21.04186 c 3.42634,-3.87166 0.88359,-8.92164 -4.49218,-8.92164 -2.38976,0 -2.70815,0.58684 -3.87619,7.14487 -0.60998,3.42413 -0.59529,3.44013 3.14176,3.44013 2.16422,0 4.37806,-0.70456 5.22661,-1.66336 z"
     id="path3386-4"
     inkscape:connector-curvature="0"
     inkscape:transform-center-x="165.74692"
     inkscape:transform-center-y="119.32868" />
  <path
     style="opacity:1;fill:#ffffff;fill-opacity:1;stroke:none;stroke-opacity:1"
     d=""
     id="path3388-4"
     inkscape:connector-curvature="0" />
  <path
     style="opacity:1;fill:#ffffff;fill-opacity:1;stroke:none;stroke-opacity:1"
     d="m 169.22243,266.51532 c -12.06253,-5.43504 -10.12933,-26.78656 3.09956,-34.23555 5.20582,-2.9313 11.42187,-3.49282 16.50429,-1.4908 2.64705,1.04271 2.94569,1.53521 2.40555,3.96723 -0.80206,3.61079 -0.90295,3.68607 -3.13295,2.33751 -2.69807,-1.63162 -9.14089,-1.41394 -12.2703,0.41464 -3.83836,2.24291 -6.98157,10.06276 -6.31199,15.70366 0.74318,6.26108 3.46751,8.5079 9.53116,7.8605 2.58165,-0.27564 5.46512,-0.86702 6.40789,-1.31419 1.4631,-0.69405 1.66875,-0.36568 1.40513,2.24344 -0.24411,2.41575 -0.99615,3.32137 -3.58752,4.3199 -3.98182,1.53433 -10.86484,1.62921 -14.05082,0.19366 z"
     id="path3390-4"
     inkscape:connector-curvature="0"
     inkscape:transform-center-x="113.27441"
     inkscape:transform-center-y="119.17818" />
  <path
     style="opacity:1;fill:#ffffff;fill-opacity:1;stroke:none;stroke-opacity:1"
     d="m 202.07498,265.85047 c -5.12763,-2.95447 -7.08525,-6.82291 -6.99423,-13.82159 0.17032,-13.09192 8.31954,-22.43042 19.57388,-22.43042 5.40131,0 9.88461,2.09513 12.48888,5.83623 3.18316,4.57252 2.84424,14.22595 -0.74783,21.30275 -4.79308,9.44313 -16.27858,13.74673 -24.3207,9.11303 z m 13.78167,-6.14896 c 5.02067,-3.97359 7.18246,-17.00248 3.57078,-21.51998 -2.53403,-3.16955 -8.03424,-3.00233 -11.56168,0.3515 -4.80874,4.57214 -6.38109,15.14447 -2.97908,20.03147 2.28131,3.27712 7.57297,3.82558 10.96998,1.13701 z"
     id="path3392-0"
     inkscape:connector-curvature="0"
     inkscape:transform-center-x="77.397668"
     inkscape:transform-center-y="119.27004" />
  <path
     style="opacity:1;fill:#ffffff;fill-opacity:1;stroke:none;stroke-opacity:1"
     d="m 235.38937,254.20861 c 1.21964,-6.84057 2.66863,-14.9381 3.21989,-17.99454 l 1.0022,-5.55711 4.98093,0 4.98097,0 2.08319,9.52651 c 1.14575,5.23958 2.35214,9.51224 2.68092,9.4948 0.32876,-0.0173 2.91623,-4.29946 5.74991,-9.5156 l 5.1522,-9.48384 5.29859,-0.0101 c 4.5585,-0.0102 5.24956,0.24779 4.94693,1.84143 -0.19337,1.01881 -1.44505,8.28277 -2.78139,16.14214 -3.28323,19.3086 -2.77681,17.99452 -6.93369,17.99452 l -3.55874,0 2.23826,-12.4374 c 1.23101,-6.84057 2.1232,-13.04802 1.98248,-13.79437 -0.14068,-0.74633 -2.78506,3.19599 -5.87625,8.76077 -4.83885,8.71056 -5.9389,10.07701 -7.90933,9.82498 -1.93243,-0.24716 -2.48742,-1.19923 -3.56439,-6.1145 -2.48581,-11.34546 -3.17362,-13.96926 -3.55005,-13.54387 -0.20947,0.2367 -1.2563,5.64343 -2.32646,12.01499 -2.70884,16.12977 -2.35294,15.2894 -6.47508,15.2894 l -3.55869,0 2.2176,-12.4374 z"
     id="path3394-9"
     inkscape:connector-curvature="0"
     inkscape:transform-center-x="35.240741"
     inkscape:transform-center-y="119.26983" />
  <path
     style="opacity:1;fill:#ffffff;fill-opacity:1;stroke:none;stroke-opacity:1"
     d="m 279.16889,264.79364 c 0.25989,-1.01879 1.57939,-8.28277 2.93227,-16.14216 1.35279,-7.85937 2.67241,-15.12333 2.93229,-16.14213 0.41066,-1.60952 1.73597,-1.85239 10.10865,-1.85239 8.93008,0 9.8176,0.19018 12.11468,2.59571 3.05739,3.20167 3.3293,9.04629 0.65182,14.00815 -2.45597,4.55142 -4.76329,5.74924 -12.59903,6.54064 l -6.65114,0.67178 -0.85416,6.08639 -0.8542,6.08638 -4.12695,0 c -3.48587,0 -4.0534,-0.28771 -3.65423,-1.85237 z m 21.19909,-19.31765 c 3.79187,-4.28477 1.97766,-8.47618 -3.99832,-9.23732 l -4.22993,-0.53871 -1.03808,5.46935 c -0.57092,3.00817 -1.03805,5.68409 -1.03805,5.94652 0,0.26245 1.89689,0.47716 4.21537,0.47716 2.96647,0 4.77059,-0.62727 6.08901,-2.117 z"
     id="path3396-7"
     inkscape:connector-curvature="0"
     inkscape:transform-center-x="-4.8030542"
     inkscape:transform-center-y="119.26" />
  <path
     style="opacity:1;fill:#ffffff;fill-opacity:1;stroke:none;stroke-opacity:1"
     d="m 308.42441,259.50113 c 1.94375,-3.92972 5.92412,-11.90814 8.84534,-17.72992 l 5.31131,-10.58497 4.7884,-0.31877 c 4.34018,-0.28893 4.83428,-0.0907 5.27766,2.11699 0.6183,3.07883 5.19109,32.17112 5.19109,33.02595 0,0.3496 -1.65819,0.6356 -3.68483,0.6356 -3.3234,0 -3.71388,-0.28549 -3.98121,-2.91087 -0.29157,-2.86351 -0.41385,-2.91591 -7.51225,-3.21914 -7.19905,-0.30752 -7.21926,-0.30074 -8.68908,2.91088 -1.27435,2.78464 -1.98656,3.21913 -5.27671,3.21913 l -3.8037,0 3.53398,-7.14488 z m 19.54719,-11.11425 c -1.23501,-10.17023 -1.61025,-10.3524 -5.42929,-2.63589 -1.8916,3.82207 -3.43931,7.22909 -3.43931,7.57112 0,0.34202 2.14729,0.62189 4.77176,0.62189 l 4.77167,0 -0.67483,-5.55712 z"
     id="path3398-3"
     inkscape:connector-curvature="0"
     inkscape:transform-center-x="-31.764471"
     inkscape:transform-center-y="119.31336" />
  <path
     style="opacity:1;fill:#ffffff;fill-opacity:1;stroke:none;stroke-opacity:1"
     d="m 344.39554,265.29657 c 0,-0.81248 1.26135,-8.81969 2.80301,-17.7938 1.54163,-8.97413 2.80628,-16.43563 2.81026,-16.58117 0.003,-0.14552 2.08011,-0.26464 4.61358,-0.26464 l 4.60635,0 3.47279,11.90814 c 1.91003,6.54947 3.7875,12.29938 4.17234,12.77754 0.38476,0.47818 1.67998,-4.8805 2.87827,-11.90816 l 2.17871,-12.77752 3.66389,0 c 3.32726,0 3.61672,0.21884 3.15033,2.38166 -0.28243,1.30988 -1.67311,9.42913 -3.09039,18.04281 l -2.57689,15.66121 -4.66569,-0.31294 -4.66575,-0.31295 -3.68406,-12.50353 c -2.02626,-6.87696 -3.92581,-12.23043 -4.22126,-11.89659 -0.29543,0.33383 -1.42387,5.96043 -2.5076,12.50353 l -1.97048,11.89659 -3.48377,0.32852 c -2.49515,0.2353 -3.48364,-0.0907 -3.48364,-1.1487 z"
     id="path3400-4"
     inkscape:connector-curvature="0"
     inkscape:transform-center-x="-72.057504"
     inkscape:transform-center-y="119.30831" />
  <path
     style="opacity:1;fill:#ffffff;fill-opacity:1;stroke:none;stroke-opacity:1"
     d="m 391.9162,259.09263 c 0.96534,-5.30126 1.09538,-8.22059 0.43642,-9.79114 -0.51647,-1.23076 -2.44432,-5.9293 -4.2841,-10.44116 l -3.34518,-8.20337 3.76259,0 c 3.73981,0 3.77968,0.0431 6.59487,7.13324 3.20472,8.07095 2.07643,8.34384 9.26718,-2.24142 3.07977,-4.5336 3.55203,-4.82831 7.78623,-4.85907 l 4.50761,-0.0328 -7.83943,10.38934 c -7.52169,9.96815 -7.88826,10.69768 -9.0423,17.99452 l -1.20284,7.60516 -4.00817,0 -4.00826,0 1.37538,-7.55336 z"
     id="path3402-3"
     inkscape:connector-curvature="0"
     inkscape:transform-center-x="-111.08273"
     inkscape:transform-center-y="119.25993" />
  <path
     style="opacity:1;fill:#ffffff;fill-opacity:1;stroke:none;stroke-opacity:1"
     d="m 432.1781,263.20589 c 0.33954,-1.89208 1.70231,-9.87053 3.02839,-17.7299 l 2.41105,-14.28975 4.70642,-0.31195 4.70651,-0.31195 3.67255,12.74661 c 2.01987,7.01064 3.95361,12.39062 4.29713,11.95548 0.34349,-0.43517 1.35188,-5.31629 2.24084,-10.84695 2.33355,-14.51853 2.00094,-13.76052 6.03783,-13.76052 l 3.53585,0 -2.63599,15.6129 c -3.80596,22.54196 -2.94119,20.37615 -8.13637,20.37615 l -4.47547,0 -3.65961,-12.70201 c -2.01283,-6.98613 -3.91821,-12.70205 -4.23417,-12.70205 -0.31594,0 -1.32582,4.64421 -2.2442,10.32041 -2.63315,16.27519 -2.1397,15.08365 -6.24602,15.08365 -3.58854,0 -3.61635,-0.0317 -3.00474,-3.44012 z"
     id="path3404-4"
     inkscape:connector-curvature="0"
     inkscape:transform-center-x="-159.74677"
     inkscape:transform-center-y="119.24081" />
  <path
     style="opacity:1;fill:#ffffff;fill-opacity:1;stroke:none;stroke-opacity:1"
     d="m 467.11069,265.98019 c 0,-0.36622 3.89929,-8.46317 8.66498,-17.99325 l 8.66503,-17.32738 4.77485,-9.4e-4 4.77491,-9.3e-4 1.66318,10.84962 c 0.91482,5.96731 2.19487,14.06483 2.84462,17.99453 l 1.18127,7.14489 -3.56377,0 c -3.19806,0 -3.62707,-0.32585 -4.18097,-3.17551 l -0.61728,-3.1755 -6.99477,0 c -6.78886,0 -7.04186,0.0932 -8.59054,3.16881 -1.32588,2.63281 -2.19001,3.16994 -5.10866,3.1755 -1.93201,0.002 -3.51285,-0.29292 -3.51285,-0.65913 z m 23.08151,-13.88858 c -0.25514,-1.01881 -0.74466,-4.35308 -1.08783,-7.40949 -0.34325,-3.05646 -0.90066,-5.54907 -1.23868,-5.53919 -0.33805,0.0102 -2.20336,3.34415 -4.14499,7.40952 l -3.53028,7.39155 5.23271,0 c 4.53574,0 5.171,-0.24674 4.76907,-1.85239 z"
     id="path3406-4"
     inkscape:connector-curvature="0"
     inkscape:transform-center-x="-193.79527"
     inkscape:transform-center-y="119.26073" />
  <path
     style="opacity:1;fill:#ffffff;fill-opacity:1;stroke:none;stroke-opacity:1"
     d="m 506.13248,263.20589 c 0.27326,-1.89208 1.63385,-9.87053 3.02344,-17.7299 l 2.52663,-14.28975 5.19317,-0.31223 5.19322,-0.31222 1.68425,9.06891 c 0.92635,4.98788 2.01586,9.30046 2.42114,9.58347 0.40529,0.28305 3.14431,-3.77654 6.08669,-9.02129 l 5.35,-9.53592 5.03041,0 c 3.39945,0 5.03063,0.42899 5.03102,1.32312 3.7e-4,0.72772 -1.32481,8.82526 -2.9448,17.99453 l -2.94539,16.6714 -3.5891,0 c -4.10523,0 -4.02572,1.91579 -0.69986,-16.83759 0.97119,-5.47652 1.60355,-10.14075 1.40514,-10.36493 -0.19844,-0.22414 -2.9405,4.13757 -6.09336,9.69274 -4.51131,7.94846 -6.19087,10.10028 -7.88381,10.10028 -1.93377,0 -2.37982,-1.01602 -4.41583,-10.05789 -1.2458,-5.53186 -2.53926,-9.46155 -2.8747,-8.73266 -0.33552,0.7289 -1.56669,6.92208 -2.73621,13.76265 l -2.12627,12.4374 -3.56632,0 c -3.50103,0 -3.5573,-0.063 -3.06946,-3.44012 z"
     id="path3408-5"
     inkscape:connector-curvature="0"
     inkscape:transform-center-x="-237.193"
     inkscape:transform-center-y="119.23999" />
  <path
     style="opacity:1;fill:#ffffff;fill-opacity:1;stroke:none;stroke-opacity:1"
     d="m 551.67758,264.29795 c 0.26229,-1.32836 1.66283,-9.441 3.11247,-18.02809 l 2.63582,-15.6129 11.0478,0 c 11.52626,0 11.99628,0.20976 10.4793,4.67669 -0.45201,1.33106 -2.0844,1.67432 -7.9624,1.67432 -6.66435,0 -7.39385,0.20034 -7.39385,2.03043 0,1.11673 -0.25587,2.78386 -0.5686,3.70475 -0.4882,1.43761 0.4531,1.67433 6.6575,1.67433 6.20444,0 7.14576,0.23672 6.65747,1.67432 -0.31261,0.92089 -0.56854,2.34986 -0.56854,3.17551 0,1.1614 -1.57772,1.50116 -6.97059,1.50116 l -6.97053,0 -0.7899,4.49865 -0.78994,4.49864 7.35062,0.30849 7.35052,0.30851 -0.29265,2.867 -0.2927,2.86699 -11.5842,0.2982 -11.58434,0.29818 0.47674,-2.41518 z"
     id="path3410-7"
     inkscape:connector-curvature="0"
     inkscape:transform-center-x="-275.78895"
     inkscape:transform-center-y="119.29356" />
</svg>
